src/hot/sim_hot.vcd
$date
    Tue Apr  5 20:10:15 2005
$end
$version
    GPLCVER_2.10c of 02/28/05
$end
$timescale
    1 ps
$end
$scope module sim_hot $end
$var reg       1 !    clk $end
$var reg       1 "    i $end
$var wire       1 #    o $end
$var reg       1 $    rst $end
$scope module hot $end
$var wire       1 %    CLK0 $end
$var wire       1 &    CLK2X $end
$var wire       1 '    CLKFB $end
$var wire       1 (    CLKIN $end
$var wire       1 )    clk $end
$var wire       1 *    i $end
$var wire       1 +    o $end
$var wire       1 ,    rst $end
$upscope $end
$upscope $end
$enddefinitions $end
#0
$dumpvars
0!
0"
x#
0$
0%
x&
0'
0(
0)
0*
x+
0,
$end
#1000
0#
0+
0&
1(
1)
1!
#2000
0(
0)
0!
#3000
1(
1)
1!
#4000
0(
0)
0!
#5000
1(
1)
1!
#6000
0(
0)
0!
#7000
1(
1)
1!
#8000
0(
0)
0!
#9000
1(
1)
1!
#10000
0(
0)
0!
#11000
1'
1%
1#
1+
1&
1(
1)
1!
#11500
0#
0+
0&
#12000
0'
0%
0(
0)
0!
#13000
1'
1%
1#
1+
1&
1(
1)
1!
#13500
0#
0+
0&
#14000
0'
0%
0(
0)
0!
#15000
1'
1%
1#
1+
1&
1(
1)
1!
#15500
0#
0+
0&
#16000
0'
0%
1#
1+
1&
0(
0)
0!
#16500
0#
0+
0&
#17000
1'
1%
1#
1+
1&
1(
1)
1!
#17500
0#
0+
0&
#18000
0'
0%
1#
1+
1&
0(
0)
0!
#18500
0#
0+
0&
#19000
1'
1%
1#
1+
1&
1(
1)
1!
#19500
0#
0+
0&
#20000
0'
0%
1#
1+
1&
0(
0)
0!
#20500
0#
0+
0&
#21000
1'
1%
1#
1+
1&
1(
1)
1!
#21500
0#
0+
0&
#22000
0'
0%
1#
1+
1&
0(
0)
0!
#22500
0#
0+
0&
#23000
1'
1%
1#
1+
1&
1(
1)
1!
#23500
0#
0+
0&
#24000
0'
0%
1#
1+
1&
0(
0)
0!
#24500
0#
0+
0&
#25000
1'
1%
1#
1+
1&
1(
1)
1!
#25500
0#
0+
0&
#26000
0'
0%
1#
1+
1&
0(
0)
0!
#26500
0#
0+
0&
#27000
1'
1%
1#
1+
1&
1(
1)
1!
#27500
0#
0+
0&
#28000
0'
0%
1#
1+
1&
0(
0)
0!
#28500
0#
0+
0&
#29000
1'
1%
1#
1+
1&
1(
1)
1!
#29500
0#
0+
0&
#30000
0'
0%
1#
1+
1&
0(
0)
0!
#30500
0#
0+
0&
#31000
1'
1%
1#
1+
1&
1(
1)
1!
#31500
0#
0+
0&
#32000
0'
0%
1#
1+
1&
0(
0)
0!
#32500
0#
0+
0&
#33000
1'
1%
1#
1+
1&
1(
1)
1!
#33500
0#
0+
0&
#34000
0'
0%
1#
1+
1&
0(
0)
0!
#34500
0#
0+
0&
#35000
1'
1%
1#
1+
1&
1(
1)
1!
#35500
0#
0+
0&
#36000
0'
0%
1#
1+
1&
1*
1"
0(
0)
0!
#36500
0#
0+
0&
#37000
1'
1%
1#
1+
1&
1(
1)
1!
#37500
0#
0+
0&
#38000
0'
0%
1#
1+
1&
0(
0)
0!
#38500
0#
0+
0&
#39000
1'
1%
1#
1+
1&
1(
1)
1!
#39500
0#
0+
0&
#40000
0'
0%
1#
1+
1&
0(
0)
0!
#40500
0#
0+
0&
#41000
1'
1%
1#
1+
1&
1(
1)
1!
#41500
0#
0+
0&
#42000
0'
0%
1#
1+
1&
0(
0)
0!
#42500
0#
0+
0&
#43000
1'
1%
1#
1+
1&
1(
1)
1!
#43500
0#
0+
0&
#44000
0'
0%
1#
1+
1&
0(
0)
0!
#44500
0#
0+
0&
#45000
1'
1%
1#
1+
1&
1(
1)
1!
#45500
0#
0+
0&
#46000
0'
0%
1#
1+
1&
0(
0)
0!
#46500
0#
0+
0&
#47000
1'
1%
1#
1+
1&
1(
1)
1!
#47500
0#
0+
0&
#48000
0'
0%
1#
1+
1&
0(
0)
0!
#48500
0#
0+
0&
#49000
1'
1%
1#
1+
1&
1(
1)
1!
#49500
0#
0+
0&
#50000
0'
0%
1#
1+
1&
0(
0)
0!
#50500
0#
0+
0&
#51000
1'
1%
1#
1+
1&
1(
1)
1!
#51500
0#
0+
0&
#52000
0'
0%
1#
1+
1&
0(
0)
0!
#52500
0#
0+
0&
#53000
1'
1%
1#
1+
1&
1(
1)
1!
#53500
0#
0+
0&
#54000
0'
0%
1#
1+
1&
0(
0)
0!
#54500
0#
0+
0&
#55000
1'
1%
1#
1+
1&
1(
1)
1!
#55500
0#
0+
0&
#56000
0'
0%
1#
1+
1&
0(
0)
0!
#56500
0#
0+
0&
#57000
1'
1%
1#
1+
1&
1(
1)
1!
#57500
0#
0+
0&
#58000
0'
0%
1#
1+
1&
0(
0)
0!
#58500
0#
0+
0&
#59000
1'
1%
1#
1+
1&
1(
1)
1!
#59500
0#
0+
0&
#60000
0'
0%
1#
1+
1&
0(
0)
0!
#60500
0#
0+
0&
#61000
1'
1%
1#
1+
1&
1(
1)
1!
#61500
0#
0+
0&
#62000
0'
0%
1#
1+
1&
0(
0)
0!
#62500
0#
0+
0&
#63000
1'
1%
1#
1+
1&
1(
1)
1!
#63500
0#
0+
0&
#64000
0'
0%
1#
1+
1&
0(
0)
0!
#64500
0#
0+
0&
#65000
1'
1%
1#
1+
1&
1(
1)
1!
#65500
0#
0+
0&
#66000
0'
0%
1#
1+
1&
0(
0)
0!
#66500
0#
0+
0&
#67000
1'
1%
1#
1+
1&
0*
0"
1(
1)
1!
#67500
0#
0+
0&
#68000
0'
0%
1#
1+
1&
0(
0)
0!
#68500
0#
0+
0&
#69000
1'
1%
1#
1+
1&
1(
1)
1!
#69500
0#
0+
0&
#70000
0'
0%
1#
1+
1&
0(
0)
0!
#70500
0#
0+
0&
#71000
1'
1%
1#
1+
1&
1(
1)
1!
#71500
0#
0+
0&
#72000
0'
0%
1#
1+
1&
0(
0)
0!
#72500
0#
0+
0&
#73000
1'
1%
1#
1+
1&
1(
1)
1!
#73500
0#
0+
0&
#74000
0'
0%
1#
1+
1&
0(
0)
0!
#74500
0#
0+
0&
#75000
1'
1%
1#
1+
1&
1(
1)
1!
#75500
0#
0+
0&
#76000
0'
0%
1#
1+
1&
0(
0)
0!
#76500
0#
0+
0&
#77000
1'
1%
1#
1+
1&
1(
1)
1!
#77500
0#
0+
0&
#78000
0'
0%
1#
1+
1&
0(
0)
0!
#78500
0#
0+
0&
#79000
1'
1%
1#
1+
1&
1(
1)
1!
#79500
0#
0+
0&
#80000
0'
0%
1#
1+
1&
0(
0)
0!
#80500
0#
0+
0&
#81000
1'
1%
1#
1+
1&
1(
1)
1!
#81500
0#
0+
0&
#82000
0'
0%
1#
1+
1&
0(
0)
0!
#82500
0#
0+
0&
#83000
1'
1%
1#
1+
1&
1(
1)
1!
#83500
0#
0+
0&
#84000
0'
0%
1#
1+
1&
0(
0)
0!
#84500
0#
0+
0&
#85000
1'
1%
1#
1+
1&
1(
1)
1!
#85500
0#
0+
0&
#86000
0'
0%
1#
1+
1&
0(
0)
0!
#86500
0#
0+
0&
#87000
1'
1%
1#
1+
1&
1(
1)
1!
#87500
0#
0+
0&
#88000
0'
0%
1#
1+
1&
0(
0)
0!
#88500
0#
0+
0&
#89000
1'
1%
1#
1+
1&
1(
1)
1!
#89500
0#
0+
0&
#90000
0'
0%
1#
1+
1&
0(
0)
0!
#90500
0#
0+
0&
#91000
1'
1%
1#
1+
1&
1(
1)
1!
#91500
0#
0+
0&
#92000
0'
0%
1#
1+
1&
0(
0)
0!
#92500
0#
0+
0&
#93000
1'
1%
1#
1+
1&
1(
1)
1!
#93500
0#
0+
0&
#94000
0'
0%
1#
1+
1&
0(
0)
0!
#94500
0#
0+
0&
#95000
1'
1%
1#
1+
1&
1(
1)
1!
#95500
0#
0+
0&
#96000
0'
0%
1#
1+
1&
0(
0)
0!
#96500
0#
0+
0&
#97000
1'
1%
1#
1+
1&
1(
1)
1!
#97500
0#
0+
0&
#98000
0'
0%
1#
1+
1&
0(
0)
0!
#98500
0#
0+
0&
#99000
1'
1%
1#
1+
1&
1(
1)
1!
#99500
0#
0+
0&
#100000
0'
0%
1#
1+
1&
0(
0)
0!
#100500
0#
0+
0&
#101000
1'
1%
1#
1+
1&
1(
1)
1!
#101500
0#
0+
0&
#102000
0'
0%
1#
1+
1&
0(
0)
0!
#102500
0#
0+
0&
#103000
1'
1%
1#
1+
1&
1(
1)
1!
#103500
0#
0+
0&
#104000
0'
0%
1#
1+
1&
0(
0)
0!
#104500
0#
0+
0&
#105000
1'
1%
1#
1+
1&
1(
1)
1!
#105500
0#
0+
0&
#106000
0'
0%
1#
1+
1&
0(
0)
0!
#106500
0#
0+
0&
#107000
1'
1%
1#
1+
1&
1(
1)
1!
#107500
0#
0+
0&
#108000
0'
0%
1#
1+
1&
0(
0)
0!
#108500
0#
0+
0&
#109000
1'
1%
1#
1+
1&
1(
1)
1!
#109500
0#
0+
0&
#110000
0'
0%
1#
1+
1&
0(
0)
0!
#110500
0#
0+
0&
#111000
1'
1%
1#
1+
1&
1(
1)
1!
#111500
0#
0+
0&
#112000
0'
0%
1#
1+
1&
0(
0)
0!
#112500
0#
0+
0&
#113000
1'
1%
1#
1+
1&
1(
1)
1!
#113500
0#
0+
0&
#114000
0'
0%
1#
1+
1&
0(
0)
0!
#114500
0#
0+
0&
#115000
1'
1%
1#
1+
1&
1(
1)
1!
#115500
0#
0+
0&
#116000
0'
0%
1#
1+
1&
0(
0)
0!
#116500
0#
0+
0&
#117000
1'
1%
1#
1+
1&
1(
1)
1!
#117500
0#
0+
0&
#118000
0'
0%
1#
1+
1&
0(
0)
0!
#118500
0#
0+
0&
#119000
1'
1%
1#
1+
1&
1(
1)
1!
#119500
0#
0+
0&
#120000
0'
0%
1#
1+
1&
0(
0)
0!
#120500
0#
0+
0&
#121000
1'
1%
1#
1+
1&
1(
1)
1!
#121500
0#
0+
0&
#122000
0'
0%
1#
1+
1&
0(
0)
0!
#122500
0#
0+
0&
#123000
1'
1%
1#
1+
1&
1(
1)
1!
#123500
0#
0+
0&
#124000
0'
0%
1#
1+
1&
0(
0)
0!
#124500
0#
0+
0&
#125000
1'
1%
1#
1+
1&
1(
1)
1!
#125500
0#
0+
0&
#126000
0'
0%
1#
1+
1&
0(
0)
0!
#126500
0#
0+
0&
#127000
1'
1%
1#
1+
1&
1(
1)
1!
#127500
0#
0+
0&
#128000
0'
0%
1#
1+
1&
0(
0)
0!
#128500
0#
0+
0&
#129000
1'
1%
1#
1+
1&
1(
1)
1!
#129500
0#
0+
0&
#130000
0'
0%
1#
1+
1&
0(
0)
0!
#130500
0#
0+
0&
#131000
1'
1%
1#
1+
1&
1(
1)
1!
#131500
0#
0+
0&
#132000
0'
0%
1#
1+
1&
0(
0)
0!
#132500
0#
0+
0&
#133000
1'
1%
1#
1+
1&
1(
1)
1!
#133500
0#
0+
0&
#134000
0'
0%
1#
1+
1&
0(
0)
0!
#134500
0#
0+
0&
#135000
1'
1%
1#
1+
1&
1(
1)
1!
#135500
0#
0+
0&
#136000
0'
0%
1#
1+
1&
0(
0)
0!
#136500
0#
0+
0&
#137000
1'
1%
1#
1+
1&
1(
1)
1!
#137500
0#
0+
0&
#138000
0'
0%
1#
1+
1&
0(
0)
0!
#138500
0#
0+
0&
#139000
1'
1%
1#
1+
1&
1(
1)
1!
#139500
0#
0+
0&
#140000
0'
0%
1#
1+
1&
0(
0)
0!
#140500
0#
0+
0&
#141000
1'
1%
1#
1+
1&
1(
1)
1!
#141500
0#
0+
0&
#142000
0'
0%
1#
1+
1&
0(
0)
0!
#142500
0#
0+
0&
#143000
1'
1%
1#
1+
1&
1(
1)
1!
#143500
0#
0+
0&
#144000
0'
0%
1#
1+
1&
0(
0)
0!
#144500
0#
0+
0&
#145000
1'
1%
1#
1+
1&
1(
1)
1!
#145500
0#
0+
0&
#146000
0'
0%
1#
1+
1&
0(
0)
0!
#146500
0#
0+
0&
#147000
1'
1%
1#
1+
1&
1(
1)
1!
#147500
0#
0+
0&
#148000
0'
0%
1#
1+
1&
0(
0)
0!
#148500
0#
0+
0&
#149000
1'
1%
1#
1+
1&
1(
1)
1!
#149500
0#
0+
0&
#150000
0'
0%
1#
1+
1&
0(
0)
0!
#150500
0#
0+
0&
#151000
1'
1%
1#
1+
1&
1(
1)
1!
#151500
0#
0+
0&
#152000
0'
0%
1#
1+
1&
0(
0)
0!
#152500
0#
0+
0&
#153000
1'
1%
1#
1+
1&
1(
1)
1!
#153500
0#
0+
0&
#154000
0'
0%
1#
1+
1&
0(
0)
0!
#154500
0#
0+
0&
#155000
1'
1%
1#
1+
1&
1(
1)
1!
#155500
0#
0+
0&
#156000
0'
0%
1#
1+
1&
0(
0)
0!
#156500
0#
0+
0&
#157000
1'
1%
1#
1+
1&
1(
1)
1!
#157500
0#
0+
0&
#158000
0'
0%
1#
1+
1&
0(
0)
0!
#158500
0#
0+
0&
#159000
1'
1%
1#
1+
1&
1(
1)
1!
#159500
0#
0+
0&
#160000
0'
0%
1#
1+
1&
0(
0)
0!
#160500
0#
0+
0&
#161000
1'
1%
1#
1+
1&
1(
1)
1!
#161500
0#
0+
0&
#162000
0'
0%
1#
1+
1&
0(
0)
0!
#162500
0#
0+
0&
#163000
1'
1%
1#
1+
1&
1(
1)
1!
#163500
0#
0+
0&
#164000
0'
0%
1#
1+
1&
0(
0)
0!
#164500
0#
0+
0&
#165000
1'
1%
1#
1+
1&
1(
1)
1!
#165500
0#
0+
0&
#166000
0'
0%
1#
1+
1&
0(
0)
0!
#166500
0#
0+
0&
#167000
1'
1%
1#
1+
1&
1(
1)
1!
#167500
0#
0+
0&
#168000
0'
0%
1#
1+
1&
0(
0)
0!
#168500
0#
0+
0&
#169000
1'
1%
1#
1+
1&
1(
1)
1!
#169500
0#
0+
0&
#170000
0'
0%
1#
1+
1&
0(
0)
0!
#170500
0#
0+
0&
#171000
1'
1%
1#
1+
1&
1(
1)
1!
#171500
0#
0+
0&
#172000
0'
0%
1#
1+
1&
0(
0)
0!
#172500
0#
0+
0&
#173000
1'
1%
1#
1+
1&
1(
1)
1!
#173500
0#
0+
0&
#174000
0'
0%
1#
1+
1&
0(
0)
0!
#174500
0#
0+
0&
#175000
1'
1%
1#
1+
1&
1(
1)
1!
#175500
0#
0+
0&
#176000
0'
0%
1#
1+
1&
0(
0)
0!
#176500
0#
0+
0&
#177000
1'
1%
1#
1+
1&
1(
1)
1!
#177500
0#
0+
0&
#178000
0'
0%
1#
1+
1&
0(
0)
0!
#178500
0#
0+
0&
#179000
1'
1%
1#
1+
1&
1(
1)
1!
#179500
0#
0+
0&
#180000
0'
0%
1#
1+
1&
0(
0)
0!
#180500
0#
0+
0&
#181000
1'
1%
1#
1+
1&
1(
1)
1!
#181500
0#
0+
0&
#182000
0'
0%
1#
1+
1&
0(
0)
0!
#182500
0#
0+
0&
#183000
1'
1%
1#
1+
1&
1(
1)
1!
#183500
0#
0+
0&
#184000
0'
0%
1#
1+
1&
0(
0)
0!
#184500
0#
0+
0&
#185000
1'
1%
1#
1+
1&
1(
1)
1!
#185500
0#
0+
0&
#186000
0'
0%
1#
1+
1&
0(
0)
0!
#186500
0#
0+
0&
#187000
1'
1%
1#
1+
1&
1(
1)
1!
#187500
0#
0+
0&
#188000
0'
0%
1#
1+
1&
0(
0)
0!
#188500
0#
0+
0&
#189000
1'
1%
1#
1+
1&
1(
1)
1!
#189500
0#
0+
0&
#190000
0'
0%
1#
1+
1&
0(
0)
0!
#190500
0#
0+
0&
#191000
1'
1%
1#
1+
1&
1(
1)
1!
#191500
0#
0+
0&
#192000
0'
0%
1#
1+
1&
0(
0)
0!
#192500
0#
0+
0&
#193000
1'
1%
1#
1+
1&
1(
1)
1!
#193500
0#
0+
0&
#194000
0'
0%
1#
1+
1&
0(
0)
0!
#194500
0#
0+
0&
#195000
1'
1%
1#
1+
1&
1(
1)
1!
#195500
0#
0+
0&
#196000
0'
0%
1#
1+
1&
0(
0)
0!
#196500
0#
0+
0&
#197000
1'
1%
1#
1+
1&
1(
1)
1!
#197500
0#
0+
0&
#198000
0'
0%
1#
1+
1&
0(
0)
0!
#198500
0#
0+
0&
#199000
1'
1%
1#
1+
1&
1(
1)
1!
#199500
0#
0+
0&
#200000
0'
0%
1#
1+
1&
0(
0)
0!
#200500
0#
0+
0&
#201000
1'
1%
1#
1+
1&
1(
1)
1!
#201500
0#
0+
0&
#202000
0'
0%
1#
1+
1&
0(
0)
0!
#202500
0#
0+
0&
#203000
1'
1%
1#
1+
1&
1(
1)
1!
#203500
0#
0+
0&
#204000
0'
0%
1#
1+
1&
0(
0)
0!
#204500
0#
0+
0&
#205000
1'
1%
1#
1+
1&
1(
1)
1!
#205500
0#
0+
0&
#206000
0'
0%
1#
1+
1&
0(
0)
0!
#206500
0#
0+
0&
#207000
1'
1%
1#
1+
1&
1(
1)
1!
#207500
0#
0+
0&
#208000
0'
0%
1#
1+
1&
0(
0)
0!
#208500
0#
0+
0&
#209000
1'
1%
1#
1+
1&
1(
1)
1!
#209500
0#
0+
0&
#210000
0'
0%
1#
1+
1&
0(
0)
0!
#210500
0#
0+
0&
#211000
1'
1%
1#
1+
1&
1(
1)
1!
#211500
0#
0+
0&
#212000
0'
0%
1#
1+
1&
0(
0)
0!
#212500
0#
0+
0&
#213000
1'
1%
1#
1+
1&
1(
1)
1!
#213500
0#
0+
0&
#214000
0'
0%
1#
1+
1&
0(
0)
0!
#214500
0#
0+
0&
#215000
1'
1%
1#
1+
1&
1(
1)
1!
#215500
0#
0+
0&
#216000
0'
0%
1#
1+
1&
0(
0)
0!
#216500
0#
0+
0&
#217000
1'
1%
1#
1+
1&
1(
1)
1!
#217500
0#
0+
0&
#218000
0'
0%
1#
1+
1&
0(
0)
0!
#218500
0#
0+
0&
#219000
1'
1%
1#
1+
1&
1(
1)
1!
#219500
0#
0+
0&
#220000
0'
0%
1#
1+
1&
0(
0)
0!
#220500
0#
0+
0&
#221000
1'
1%
1#
1+
1&
1(
1)
1!
#221500
0#
0+
0&
#222000
0'
0%
1#
1+
1&
0(
0)
0!
#222500
0#
0+
0&
#223000
1'
1%
1#
1+
1&
1(
1)
1!
#223500
0#
0+
0&
#224000
0'
0%
1#
1+
1&
0(
0)
0!
#224500
0#
0+
0&
#225000
1'
1%
1#
1+
1&
1(
1)
1!
#225500
0#
0+
0&
#226000
0'
0%
1#
1+
1&
0(
0)
0!
#226500
0#
0+
0&
#227000
1'
1%
1#
1+
1&
1(
1)
1!
#227500
0#
0+
0&
#228000
0'
0%
1#
1+
1&
0(
0)
0!
#228500
0#
0+
0&
#229000
1'
1%
1#
1+
1&
1(
1)
1!
#229500
0#
0+
0&
#230000
0'
0%
1#
1+
1&
0(
0)
0!
#230500
0#
0+
0&
#231000
1'
1%
1#
1+
1&
1(
1)
1!
#231500
0#
0+
0&
#232000
0'
0%
1#
1+
1&
0(
0)
0!
#232500
0#
0+
0&
#233000
1'
1%
1#
1+
1&
1(
1)
1!
#233500
0#
0+
0&
#234000
0'
0%
1#
1+
1&
0(
0)
0!
#234500
0#
0+
0&
#235000
1'
1%
1#
1+
1&
1(
1)
1!
#235500
0#
0+
0&
#236000
0'
0%
1#
1+
1&
0(
0)
0!
#236500
0#
0+
0&
#237000
1'
1%
1#
1+
1&
1(
1)
1!
#237500
0#
0+
0&
#238000
0'
0%
1#
1+
1&
0(
0)
0!
#238500
0#
0+
0&
#239000
1'
1%
1#
1+
1&
1(
1)
1!
#239500
0#
0+
0&
#240000
0'
0%
1#
1+
1&
0(
0)
0!
#240500
0#
0+
0&
#241000
1'
1%
1#
1+
1&
1(
1)
1!
#241500
0#
0+
0&
#242000
0'
0%
1#
1+
1&
0(
0)
0!
#242500
0#
0+
0&
#243000
1'
1%
1#
1+
1&
1(
1)
1!
#243500
0#
0+
0&
#244000
0'
0%
1#
1+
1&
0(
0)
0!
#244500
0#
0+
0&
#245000
1'
1%
1#
1+
1&
1(
1)
1!
#245500
0#
0+
0&
#246000
0'
0%
1#
1+
1&
0(
0)
0!
#246500
0#
0+
0&
#247000
1'
1%
1#
1+
1&
1(
1)
1!
#247500
0#
0+
0&
#248000
0'
0%
1#
1+
1&
0(
0)
0!
#248500
0#
0+
0&
#249000
1'
1%
1#
1+
1&
1(
1)
1!
#249500
0#
0+
0&
#250000
0'
0%
1#
1+
1&
0(
0)
0!
#250500
0#
0+
0&
#251000
1'
1%
1#
1+
1&
1(
1)
1!
#251500
0#
0+
0&
#252000
0'
0%
1#
1+
1&
0(
0)
0!
#252500
0#
0+
0&
#253000
1'
1%
1#
1+
1&
1(
1)
1!
#253500
0#
0+
0&
#254000
0'
0%
1#
1+
1&
0(
0)
0!
#254500
0#
0+
0&
#255000
1'
1%
1#
1+
1&
1(
1)
1!
#255500
0#
0+
0&
#256000
0'
0%
1#
1+
1&
0(
0)
0!
#256500
0#
0+
0&
#257000
1'
1%
1#
1+
1&
1(
1)
1!
#257500
0#
0+
0&
#258000
0'
0%
1#
1+
1&
0(
0)
0!
#258500
0#
0+
0&
#259000
1'
1%
1#
1+
1&
1(
1)
1!
#259500
0#
0+
0&
#260000
0'
0%
1#
1+
1&
0(
0)
0!
#260500
0#
0+
0&
#261000
1'
1%
1#
1+
1&
1(
1)
1!
#261500
0#
0+
0&
#262000
0'
0%
1#
1+
1&
0(
0)
0!
#262500
0#
0+
0&
#263000
1'
1%
1#
1+
1&
1(
1)
1!
#263500
0#
0+
0&
#264000
0'
0%
1#
1+
1&
0(
0)
0!
#264500
0#
0+
0&
#265000
1'
1%
1#
1+
1&
1(
1)
1!
#265500
0#
0+
0&
#266000
0'
0%
1#
1+
1&
0(
0)
0!
#266500
0#
0+
0&
#267000
1'
1%
1#
1+
1&
1(
1)
1!
#267500
0#
0+
0&
#268000
0'
0%
1#
1+
1&
0(
0)
0!
#268500
0#
0+
0&
#269000
1'
1%
1#
1+
1&
1(
1)
1!
#269500
0#
0+
0&
#270000
0'
0%
1#
1+
1&
0(
0)
0!
#270500
0#
0+
0&
#271000
1'
1%
1#
1+
1&
1(
1)
1!
#271500
0#
0+
0&
#272000
0'
0%
1#
1+
1&
0(
0)
0!
#272500
0#
0+
0&
#273000
1'
1%
1#
1+
1&
1(
1)
1!
#273500
0#
0+
0&
#274000
0'
0%
1#
1+
1&
0(
0)
0!
#274500
0#
0+
0&
#275000
1'
1%
1#
1+
1&
1(
1)
1!
#275500
0#
0+
0&
#276000
0'
0%
1#
1+
1&
0(
0)
0!
#276500
0#
0+
0&
#277000
1'
1%
1#
1+
1&
1(
1)
1!
#277500
0#
0+
0&
#278000
0'
0%
1#
1+
1&
0(
0)
0!
#278500
0#
0+
0&
#279000
1'
1%
1#
1+
1&
1(
1)
1!
#279500
0#
0+
0&
#280000
0'
0%
1#
1+
1&
0(
0)
0!
#280500
0#
0+
0&
#281000
1'
1%
1#
1+
1&
1(
1)
1!
#281500
0#
0+
0&
#282000
0'
0%
1#
1+
1&
0(
0)
0!
#282500
0#
0+
0&
#283000
1'
1%
1#
1+
1&
1(
1)
1!
#283500
0#
0+
0&
#284000
0'
0%
1#
1+
1&
0(
0)
0!
#284500
0#
0+
0&
#285000
1'
1%
1#
1+
1&
1(
1)
1!
#285500
0#
0+
0&
#286000
0'
0%
1#
1+
1&
0(
0)
0!
#286500
0#
0+
0&
#287000
1'
1%
1#
1+
1&
1(
1)
1!
#287500
0#
0+
0&
#288000
0'
0%
1#
1+
1&
0(
0)
0!
#288500
0#
0+
0&
#289000
1'
1%
1#
1+
1&
1(
1)
1!
#289500
0#
0+
0&
#290000
0'
0%
1#
1+
1&
0(
0)
0!
#290500
0#
0+
0&
#291000
1'
1%
1#
1+
1&
1(
1)
1!
#291500
0#
0+
0&
#292000
0'
0%
1#
1+
1&
0(
0)
0!
#292500
0#
0+
0&
#293000
1'
1%
1#
1+
1&
1(
1)
1!
#293500
0#
0+
0&
#294000
0'
0%
1#
1+
1&
0(
0)
0!
#294500
0#
0+
0&
#295000
1'
1%
1#
1+
1&
1(
1)
1!
#295500
0#
0+
0&
#296000
0'
0%
1#
1+
1&
0(
0)
0!
#296500
0#
0+
0&
#297000
1'
1%
1#
1+
1&
1(
1)
1!
#297500
0#
0+
0&
#298000
0'
0%
1#
1+
1&
0(
0)
0!
#298500
0#
0+
0&
#299000
1'
1%
1#
1+
1&
1(
1)
1!
#299500
0#
0+
0&
#300000
0'
0%
1#
1+
1&
0(
0)
0!
#300500
0#
0+
0&
#301000
1'
1%
1#
1+
1&
1(
1)
1!
#301500
0#
0+
0&
#302000
0'
0%
1#
1+
1&
0(
0)
0!
#302500
0#
0+
0&
#303000
1'
1%
1#
1+
1&
1(
1)
1!
#303500
0#
0+
0&
#304000
0'
0%
1#
1+
1&
0(
0)
0!
#304500
0#
0+
0&
#305000
1'
1%
1#
1+
1&
1(
1)
1!
#305500
0#
0+
0&
#306000
0'
0%
1#
1+
1&
0(
0)
0!
#306500
0#
0+
0&
#307000
1'
1%
1#
1+
1&
1(
1)
1!
#307500
0#
0+
0&
#308000
0'
0%
1#
1+
1&
0(
0)
0!
#308500
0#
0+
0&
#309000
1'
1%
1#
1+
1&
1(
1)
1!
#309500
0#
0+
0&
#310000
0'
0%
1#
1+
1&
0(
0)
0!
#310500
0#
0+
0&
#311000
1'
1%
1#
1+
1&
1(
1)
1!
#311500
0#
0+
0&
#312000
0'
0%
1#
1+
1&
0(
0)
0!
#312500
0#
0+
0&
#313000
1'
1%
1#
1+
1&
1(
1)
1!
#313500
0#
0+
0&
#314000
0'
0%
1#
1+
1&
0(
0)
0!
#314500
0#
0+
0&
#315000
1'
1%
1#
1+
1&
1(
1)
1!
#315500
0#
0+
0&
#316000
0'
0%
1#
1+
1&
0(
0)
0!
#316500
0#
0+
0&
#317000
1'
1%
1#
1+
1&
1(
1)
1!
#317500
0#
0+
0&
#318000
0'
0%
1#
1+
1&
0(
0)
0!
#318500
0#
0+
0&
#319000
1'
1%
1#
1+
1&
1(
1)
1!
#319500
0#
0+
0&
#320000
0'
0%
1#
1+
1&
0(
0)
0!
#320500
0#
0+
0&
#321000
1'
1%
1#
1+
1&
1(
1)
1!
#321500
0#
0+
0&
#322000
0'
0%
1#
1+
1&
0(
0)
0!
#322500
0#
0+
0&
#323000
1'
1%
1#
1+
1&
1(
1)
1!
#323500
0#
0+
0&
#324000
0'
0%
1#
1+
1&
0(
0)
0!
#324500
0#
0+
0&
#325000
1'
1%
1#
1+
1&
1(
1)
1!
#325500
0#
0+
0&
#326000
0'
0%
1#
1+
1&
0(
0)
0!
#326500
0#
0+
0&
#327000
1'
1%
1#
1+
1&
1(
1)
1!
#327500
0#
0+
0&
#328000
0'
0%
1#
1+
1&
0(
0)
0!
#328500
0#
0+
0&
#329000
1'
1%
1#
1+
1&
1(
1)
1!
#329500
0#
0+
0&
#330000
0'
0%
1#
1+
1&
0(
0)
0!
#330500
0#
0+
0&
#331000
1'
1%
1#
1+
1&
1(
1)
1!
#331500
0#
0+
0&
#332000
0'
0%
1#
1+
1&
0(
0)
0!
#332500
0#
0+
0&
#333000
1'
1%
1#
1+
1&
1(
1)
1!
#333500
0#
0+
0&
#334000
0'
0%
1#
1+
1&
0(
0)
0!
#334500
0#
0+
0&
#335000
1'
1%
1#
1+
1&
1(
1)
1!
#335500
0#
0+
0&
#336000
0'
0%
1#
1+
1&
0(
0)
0!
#336500
0#
0+
0&
#337000
1'
1%
1#
1+
1&
1(
1)
1!
#337500
0#
0+
0&
#338000
0'
0%
1#
1+
1&
0(
0)
0!
#338500
0#
0+
0&
#339000
1'
1%
1#
1+
1&
1(
1)
1!
#339500
0#
0+
0&
#340000
0'
0%
1#
1+
1&
0(
0)
0!
#340500
0#
0+
0&
#341000
1'
1%
1#
1+
1&
1(
1)
1!
#341500
0#
0+
0&
#342000
0'
0%
1#
1+
1&
0(
0)
0!
#342500
0#
0+
0&
#343000
1'
1%
1#
1+
1&
1(
1)
1!
#343500
0#
0+
0&
#344000
0'
0%
1#
1+
1&
0(
0)
0!
#344500
0#
0+
0&
#345000
1'
1%
1#
1+
1&
1(
1)
1!
#345500
0#
0+
0&
#346000
0'
0%
1#
1+
1&
0(
0)
0!
#346500
0#
0+
0&
#347000
1'
1%
1#
1+
1&
1(
1)
1!
#347500
0#
0+
0&
#348000
0'
0%
1#
1+
1&
0(
0)
0!
#348500
0#
0+
0&
#349000
1'
1%
1#
1+
1&
1(
1)
1!
#349500
0#
0+
0&
#350000
0'
0%
1#
1+
1&
0(
0)
0!
#350500
0#
0+
0&
#351000
1'
1%
1#
1+
1&
1(
1)
1!
#351500
0#
0+
0&
#352000
0'
0%
1#
1+
1&
0(
0)
0!
#352500
0#
0+
0&
#353000
1'
1%
1#
1+
1&
1(
1)
1!
#353500
0#
0+
0&
#354000
0'
0%
1#
1+
1&
0(
0)
0!
#354500
0#
0+
0&
#355000
1'
1%
1#
1+
1&
1(
1)
1!
#355500
0#
0+
0&
#356000
0'
0%
1#
1+
1&
0(
0)
0!
#356500
0#
0+
0&
#357000
1'
1%
1#
1+
1&
1(
1)
1!
#357500
0#
0+
0&
#358000
0'
0%
1#
1+
1&
0(
0)
0!
#358500
0#
0+
0&
#359000
1'
1%
1#
1+
1&
1(
1)
1!
#359500
0#
0+
0&
#360000
0'
0%
1#
1+
1&
0(
0)
0!
#360500
0#
0+
0&
#361000
1'
1%
1#
1+
1&
1(
1)
1!
#361500
0#
0+
0&
#362000
0'
0%
1#
1+
1&
0(
0)
0!
#362500
0#
0+
0&
#363000
1'
1%
1#
1+
1&
1(
1)
1!
#363500
0#
0+
0&
#364000
0'
0%
1#
1+
1&
0(
0)
0!
#364500
0#
0+
0&
#365000
1'
1%
1#
1+
1&
1(
1)
1!
