src/cpu/sim_system.vcd
$date
    Thu Mar 10 19:52:30 2005
$end
$version
    GPLCVER_2.10b of 02/03/05
$end
$timescale
    1 ps
$end
$scope module sim_system $end
$scope module system $end
$var wire       1 !    clk $end
$var wire      16 "    cpu_addr [15:0] $end
$var wire       8 #    cpu_data_in [7:0] $end
$var wire       8 $    cpu_data_out [7:0] $end
$var wire       1 %    cpu_we $end
$var wire      11 &    rom1_addr [10:0] $end
$var wire       8 '    rom1_data_in [7:0] $end
$var wire       8 (    rom1_data_out [7:0] $end
$var wire       1 )    rom1_we $end
$var wire       1 *    rst $end
$scope module cpu $end
$var reg      16 +    addr [15:0] $end
$var wire       1 ,    clk $end
$var wire       8 -    di [7:0] $end
$var reg       8 .    do [7:0] $end
$var reg       8 /    imm [7:0] $end
$var reg       8 0    instr [7:0] $end
$var wire       4 1    opcode [3:0] $end
$var reg      16 2    pc [15:0] $end
$var reg      16 3    pc_next [15:0] $end
$var wire       1 4    rst $end
$var reg       8 5    state [7:0] $end
$var reg       1 6    we $end
$upscope $end
$scope module rom1 $end
$var wire      11 7    addr [10:0] $end
$var wire       1 8    clk $end
$var wire       8 9    di [7:0] $end
$var wire       8 :    do [7:0] $end
$var wire       1 ;    dop $end
$var wire       1 <    we $end
$upscope $end
$upscope $end
$upscope $end
$enddefinitions $end
#0
$dumpvars
1!
b0 "
bx #
b0 $
0%
b0 &
b0 '
bx (
0)
0*
b0 +
1,
bx -
b0 .
bx /
bx 0
bx 1
b0 2
b1 3
04
b10 5
06
b0 7
18
b0 9
bx :
x;
0<
$end
#100
b1110000 -
b1110000 #
b1110000 (
0;
b1110000 :
#1000
0,
08
0!
#2000
b111 1
b1 2
b1 5
b1110000 0
1,
18
1!
#3000
0,
08
0!
#4000
b1 7
b1 &
b1 "
b10 3
b10 5
b1 +
1,
18
1!
#5000
0,
08
0!
#6000
b10 2
b1 5
1,
18
1!
#6100
b1000 -
b1000 #
b1000 (
b1000 :
#7000
0,
08
0!
#8000
b10 7
b10 &
b10 "
b11 3
b10 5
b10 +
1,
18
1!
#9000
0,
08
0!
#10000
b0 1
b11 2
b1 5
b1000 0
1,
18
1!
#10100
b1 -
b1 #
b1 (
b1 :
#11000
0,
08
0!
#12000
b11 7
b11 &
b11 "
b100 3
b10 5
b11 +
1,
18
1!
#13000
0,
08
0!
#14000
b100 2
b1 5
b1 0
1,
18
1!
#14100
b1001 -
b1001 #
b1001 (
b1001 :
#15000
0,
08
0!
#16000
b100 7
b100 &
b100 "
b101 3
b10 5
b100 +
1,
18
1!
#17000
0,
08
0!
#18000
b101 2
b1 5
b1001 0
1,
18
1!
#18100
b100000 -
b100000 #
b100000 (
b100000 :
