src/picoblaze/sim_main.vcd
$date
    Wed Mar  9 08:53:44 2005
$end
$version
    GPLCVER_2.10b of 02/03/05
$end
$timescale
    1 ps
$end
$scope module sim_main $end
$var reg       1 !    GSR $end
$var reg       1 "    clk $end
$var wire       8 #    out_port [7:0] $end
$var reg       1 $    reset $end
$scope module main $end
$var wire      10 %    address [9:0] $end
$var wire       1 &    clk $end
$var wire       8 '    in_port [7:0] $end
$var wire      18 (    instruction [17:0] $end
$var reg       1 )    interrupt $end
$var wire       1 *    interrupt_ack $end
$var wire       8 +    out_port [7:0] $end
$var wire       8 ,    port_id [7:0] $end
$var wire       1 -    read_strobe $end
$var wire       1 .    reset $end
$var wire       1 /    write_strobe $end
$upscope $end
$upscope $end
$enddefinitions $end
#0
$dumpvars
x!
0"
bx #
1$
bx %
0&
b0 '
bx (
x)
x*
bx +
bx ,
x-
1.
x/
$end
#1000
1&
1"
#2000
0&
0"
#3000
1&
1"
#3100
b0 %
0-
0/
#4000
0&
0"
#5000
0.
0$
1&
1"
#5100
b0 #
b0 +
b0 ,
0*
b0 (
#6000
0&
0"
#7000
1&
1"
#8000
0&
0"
#9000
1&
1"
#10000
0&
0"
#11000
1&
1"
#11100
b1 %
#12000
0&
0"
#13000
1&
1"
#13100
b1 ,
b11000000000000001 (
#14000
0&
0"
#15000
1&
1"
#15100
b10 %
#16000
0&
0"
#17000
1&
1"
#17100
b1 #
b1 +
b101 ,
b101100000000000101 (
#18000
0&
0"
#19000
1&
1"
#19100
b11 %
1/
#20000
0&
0"
#21000
1&
1"
#21100
b1 ,
0/
b110100000000000001 (
#22000
0&
0"
#23000
1&
1"
#23100
b1 %
#24000
0&
0"
#25000
1&
1"
#25100
b11000000000000001 (
#26000
0&
0"
#27000
1&
1"
#27100
b10 %
#28000
0&
0"
#29000
1&
1"
#29100
b10 #
b10 +
b101 ,
b101100000000000101 (
#30000
0&
0"
#31000
1&
1"
#31100
b11 %
1/
#32000
0&
0"
#33000
1&
1"
#33100
b1 ,
0/
b110100000000000001 (
#34000
0&
0"
#35000
1&
1"
#35100
b1 %
#36000
0&
0"
#37000
1&
1"
#37100
b11000000000000001 (
#38000
0&
0"
#39000
1&
1"
#39100
b10 %
#40000
0&
0"
#41000
1&
1"
#41100
b11 #
b11 +
b101 ,
b101100000000000101 (
#42000
0&
0"
#43000
1&
1"
#43100
b11 %
1/
#44000
0&
0"
#45000
1&
1"
#45100
b1 ,
0/
b110100000000000001 (
#46000
0&
0"
#47000
1&
1"
#47100
b1 %
#48000
0&
0"
#49000
1&
1"
#49100
b11000000000000001 (
#50000
0&
0"
#51000
1&
1"
#51100
b10 %
#52000
0&
0"
#53000
1&
1"
#53100
b100 #
b100 +
b101 ,
b101100000000000101 (
#54000
0&
0"
#55000
1&
1"
#55100
b11 %
1/
#56000
0&
0"
#57000
1&
1"
#57100
b1 ,
0/
b110100000000000001 (
#58000
0&
0"
#59000
1&
1"
#59100
b1 %
#60000
0&
0"
#61000
1&
1"
#61100
b11000000000000001 (
#62000
0&
0"
#63000
1&
1"
#63100
b10 %
#64000
0&
0"
#65000
1&
1"
#65100
b101 #
b101 +
b101 ,
b101100000000000101 (
#66000
0&
0"
#67000
1&
1"
#67100
b11 %
1/
#68000
0&
0"
#69000
1&
1"
#69100
b1 ,
0/
b110100000000000001 (
#70000
0&
0"
#71000
1&
1"
#71100
b1 %
#72000
0&
0"
#73000
1&
1"
#73100
b11000000000000001 (
#74000
0&
0"
#75000
1&
1"
#75100
b10 %
#76000
0&
0"
#77000
1&
1"
#77100
b110 #
b110 +
b101 ,
b101100000000000101 (
#78000
0&
0"
#79000
1&
1"
#79100
b11 %
1/
#80000
0&
0"
#81000
1&
1"
#81100
b1 ,
0/
b110100000000000001 (
#82000
0&
0"
#83000
1&
1"
#83100
b1 %
#84000
0&
0"
#85000
1&
1"
#85100
b11000000000000001 (
#86000
0&
0"
#87000
1&
1"
#87100
b10 %
#88000
0&
0"
#89000
1&
1"
#89100
b111 #
b111 +
b101 ,
b101100000000000101 (
#90000
0&
0"
#91000
1&
1"
#91100
b11 %
1/
#92000
0&
0"
#93000
1&
1"
#93100
b1 ,
0/
b110100000000000001 (
#94000
0&
0"
#95000
1&
1"
#95100
b1 %
#96000
0&
0"
#97000
1&
1"
#97100
b11000000000000001 (
#98000
0&
0"
#99000
1&
1"
#99100
b10 %
